{
    "KPlugin": {
        "Category": "Focus",
        "Description": "Slide back windows when another window is raised",
        "Description[ar]": "مرر النوافذ للخلف عند صعود نافذة أخرى",
        "Description[az]": "Yeni pəncərə qaldırıldığında digər pəncərə arxaya sürüşür",
        "Description[ca@valencia]": "Llisca enrere les finestres quan s'eleva una altra finestra",
        "Description[ca]": "Llisca enrere les finestres quan s'eleva una altra finestra",
        "Description[cs]": "Zasunout okna, pokud ztratí zaměření",
        "Description[en_GB]": "Slide back windows when another window is raised",
        "Description[es]": "Deslizar hacia atrás las ventanas cuando otra ventana pasa al primer plano",
        "Description[fi]": "Liu’uttaa ikkunoita taaksepäin toisen ikkunan noustessa",
        "Description[fr]": "Faire glisser les fenêtres vers l'arrière lors de l'apparition d'une autre fenêtre",
        "Description[hu]": "Ablakok visszacsúsztatása másik ablak előtérbe hozásakor",
        "Description[ia]": "Glissa retro fenestras quando un altere fenestra es elevate",
        "Description[id]": "Menggeser mundur window ketika window yang lain dinaikkan",
        "Description[it]": "Fai scivolare indietro le altre finestre quando un'altra finestra viene portata in primo piano",
        "Description[ko]": "다른 창을 올렸을 때 창 뒤로 밀기",
        "Description[nl]": "Schuif vensters terug wanneer een ander venster omhoog komt",
        "Description[nn]": "Skli tilbake vindauge som mistar fokus",
        "Description[pl]": "Przesuwa inne okna do tyłu przy przywoływaniu danego okna",
        "Description[pt_BR]": "Desliza as janelas para trás quando outra for elevada",
        "Description[ru]": "При подъёме окна другие окна соскальзывают назад",
        "Description[sk]": "Zasunie okná pri zdvihnutí iného okna",
        "Description[sl]": "Zdrsni okna nazaj, ko se dvigne drugo",
        "Description[sv]": "Låt fönster skjutas tillbaka när ett annat fönster höjs",
        "Description[tr]": "Başka bir pencere yükseltildiğinde pencereleri geri kaydır",
        "Description[uk]": "Ковзання вікон на задній план під час підняття інших вікон",
        "Description[vi]": "Trượt lùi cửa sổ khi một cửa sổ khác được nâng lên",
        "Description[x-test]": "xxSlide back windows when another window is raisedxx",
        "Description[zh_CN]": "激活一个窗口时呈现其他窗口的后滑动效",
        "EnabledByDefault": false,
        "Id": "slideback",
        "License": "GPL",
        "Name": "Slide Back",
        "Name[ar]": "التمرير الخلفي",
        "Name[az]": "Arxasına sürüşdürmək",
        "Name[ca@valencia]": "Llisca cap enrere",
        "Name[ca]": "Llisca cap enrere",
        "Name[cs]": "Zasunout",
        "Name[en_GB]": "Slide Back",
        "Name[es]": "Deslizar hacia atrás",
        "Name[fi]": "Liuku taaksepäin",
        "Name[fr]": "Glisser vers l'arrière",
        "Name[hu]": "Visszacsúszó ablakok",
        "Name[ia]": "Glissa de retro",
        "Name[it]": "Scivola indietro",
        "Name[ko]": "뒤로 미끄러짐",
        "Name[nl]": "Naar achter bewegen",
        "Name[nn]": "Skli tilbake",
        "Name[pl]": "Przesuwanie w tył",
        "Name[pt_BR]": "Deslizar para trás",
        "Name[ru]": "Соскальзывание",
        "Name[sk]": "Zasunúť",
        "Name[sl]": "Zdrsni nazaj",
        "Name[sv]": "Skjut tillbaka",
        "Name[tr]": "Geri Kaydır",
        "Name[uk]": "Зниження",
        "Name[vi]": "Trượt lùi",
        "Name[x-test]": "xxSlide Backxx",
        "Name[zh_CN]": "窗口后滑动效"
    }
}
